[

    {
        "next":1430200171.4762919000000,
        "now":1430210288.5659564000000,
        "alarms":[
            {
                "id":1430199987000000,
                "start":1430200002.3136163000000,
                "changed":1430200003.2176681000000,
                "duration":9.0305161476135e-001,
                "status":1,
                "wid":"{35d8f8e0-d7e6-4708-b8d8-44f3b032dc11}",
                "url":"igmp://239.1.1.3:2000#104",
                "key":"Video decoding stopped",
                "subkey":"1110",
                "info":""
            },
            {
                "id":1430199987000001,
                "start":1430200002.3136163000000,
                "changed":1430200003.5176852000000,
                "duration":0,
                "status":1,
                "wid":"{f9666505-5d8a-4cc7-bc21-510096d279b4}",
                "url":"igmp://239.1.1.3:2000#105",
                "key":"Continuity_count_error",
                "subkey":"500",
                "info":"1, PMT"
            },
            {
                "id":1430199987000002,
                "start":1430200002.3136163000000,
                "changed":1430200003.5186853000000,
                "duration":0,
                "status":1,
                "wid":"{1fdbf90a-09d9-44e4-87e2-b815bd1d1f0f}",
                "url":"igmp://239.1.1.3:2000#107",
                "key":"Continuity_count_error",
                "subkey":"1000",
                "info":"10, PMT"
            },
            {
                "id":1430199987000004,
                "start":1430200002.3136163000000,
                "changed":1430200003.5186853000000,
                "duration":0,
                "status":1,
                "wid":"{3240845e-8fda-410d-bef0-fab8512f3791}",
                "url":"igmp://239.1.1.3:2000#108",
                "key":"Continuity_count_error",
                "subkey":"1400",
                "info":"10, PMT"
            },
            {
                "id":1430199987000006,
                "start":1430200003.2166679000000,
                "changed":1430200004.1197197000000,
                "duration":9.0305185317993e-001,
                "status":1,
                "wid":"{35d8f8e0-d7e6-4708-b8d8-44f3b032dc11}",
                "url":"igmp://239.1.1.3:2000#104",
                "key":"PID scrambled",
                "subkey":"1110",
                "info":"H.264/AVC Video (27)"
            },
            {
                "id":1430199987000007,
                "start":1430200003.2166679000000,
                "changed":1430200004.4377379000000,
                "duration":0,
                "status":1,
                "wid":"{f9666505-5d8a-4cc7-bc21-510096d279b4}",
                "url":"igmp://239.1.1.3:2000#105",
                "key":"PCR_repetition_error [2.3a]",
                "subkey":"",
                "info":"42 ms"
            },
            {
                "id":1430199987000008,
                "start":1430200003.2166679000000,
                "changed":1430200004.4377379000000,
                "duration":0,
                "status":1,
                "wid":"{1fdbf90a-09d9-44e4-87e2-b815bd1d1f0f}",
                "url":"igmp://239.1.1.3:2000#107",
                "key":"PCR_repetition_error [2.3a]",
                "subkey":"",
                "info":"42 ms"
            },
            {
                "id":1430199987000009,
                "start":1430200003.2166679000000,
                "changed":1430200004.4377379000000,
                "duration":0,
                "status":1,
                "wid":"{3240845e-8fda-410d-bef0-fab8512f3791}",
                "url":"igmp://239.1.1.3:2000#108",
                "key":"PCR_repetition_error [2.3a]",
                "subkey":"",
                "info":"41 ms"
            },
            {
                "id":1430199987000010,
                "start":1430200004.1197197000000,
                "changed":1430200004.8597620000000,
                "duration":7.4004220962524e-001,
                "status":1,
                "wid":"{35d8f8e0-d7e6-4708-b8d8-44f3b032dc11}",
                "url":"igmp://239.1.1.3:2000#104",
                "key":"Video decoding stopped",
                "subkey":"1110",
                "info":""
            },
            {
                "id":1430199987000003,
                "start":1430200002.3136163000000,
                "changed":1430200004.8597620000000,
                "duration":2.5461456775665,
                "status":1,
                "wid":"{1fdbf90a-09d9-44e4-87e2-b815bd1d1f0f}",
                "url":"igmp://239.1.1.3:2000#107",
                "key":"Video decoding stopped",
                "subkey":"1010",
                "info":""
            },
            {
                "id":1430199987000011,
                "start":1430200005.0727742000000,
                "changed":1430200006.2928438000000,
                "duration":0,
                "status":1,
                "wid":"{f9666505-5d8a-4cc7-bc21-510096d279b4}",
                "url":"igmp://239.1.1.3:2000#105",
                "key":"PCR_repetition_error [2.3a]",
                "subkey":"",
                "info":"41 ms"
            },
            {
                "id":1430199987000012,
                "start":1430200005.0727742000000,
                "changed":1430200006.2938440000000,
                "duration":0,
                "status":1,
                "wid":"{1fdbf90a-09d9-44e4-87e2-b815bd1d1f0f}",
                "url":"igmp://239.1.1.3:2000#107",
                "key":"PCR_repetition_error [2.3a]",
                "subkey":"",
                "info":"41 ms"
            },
            {
                "id":1430199987000013,
                "start":1430200005.0727742000000,
                "changed":1430200006.2938440000000,
                "duration":0,
                "status":1,
                "wid":"{3240845e-8fda-410d-bef0-fab8512f3791}",
                "url":"igmp://239.1.1.3:2000#108",
                "key":"PCR_repetition_error [2.3a]",
                "subkey":"",
                "info":"41 ms"
            },
            {
                "id":1430199987000005,
                "start":1430200002.3136163000000,
                "changed":1430200006.2938440000000,
                "duration":3.9792275428772,
                "status":1,
                "wid":"{3240845e-8fda-410d-bef0-fab8512f3791}",
                "url":"igmp://239.1.1.3:2000#108",
                "key":"Video decoding stopped",
                "subkey":"1410",
                "info":""
            },
            {
                "id":1430199987000014,
                "start":1430200006.2928438000000,
                "changed":1430200007.5179138000000,
                "duration":0,
                "status":1,
                "wid":"{f9666505-5d8a-4cc7-bc21-510096d279b4}",
                "url":"igmp://239.1.1.3:2000#105",
                "key":"PCR_repetition_error [2.3a]",
                "subkey":"",
                "info":"41 ms"
            },
            {
                "id":1430199987000015,
                "start":1430200006.2928438000000,
                "changed":1430200007.5179138000000,
                "duration":0,
                "status":1,
                "wid":"{3240845e-8fda-410d-bef0-fab8512f3791}",
                "url":"igmp://239.1.1.3:2000#108",
                "key":"PCR_repetition_error [2.3a]",
                "subkey":"",
                "info":"42 ms"
            },
            {
                "id":1430199987000017,
                "start":1430200008.1489501000000,
                "changed":1430200008.1489501000000,
                "duration":0,
                "status":0,
                "wid":"{f9666505-5d8a-4cc7-bc21-510096d279b4}",
                "url":"igmp://239.1.1.3:2000#105",
                "key":"PCR_repetition_error [2.3a]",
                "subkey":"",
                "info":"43 ms"
            },
            {
                "id":1430199987000016,
                "start":1430200007.2128966000000,
                "changed":1430200008.4529674000000,
                "duration":0,
                "status":1,
                "wid":"{1fdbf90a-09d9-44e4-87e2-b815bd1d1f0f}",
                "url":"igmp://239.1.1.3:2000#107",
                "key":"PCR_repetition_error [2.3a]",
                "subkey":"",
                "info":"42 ms"
            },
            {
                "id":1430199987000020,
                "start":1430200009.0880036000000,
                "changed":1430200010.3250744000000,
                "duration":0,
                "status":1,
                "wid":"{f9666505-5d8a-4cc7-bc21-510096d279b4}",
                "url":"igmp://239.1.1.3:2000#105",
                "key":"PCR_repetition_error [2.3a]",
                "subkey":"",
                "info":"41 ms"
            },
            {
                "id":1430199987000018,
                "start":1430200009.0880036000000,
                "changed":1430200010.3260746000000,
                "duration":0,
                "status":1,
                "wid":"{1fdbf90a-09d9-44e4-87e2-b815bd1d1f0f}",
                "url":"igmp://239.1.1.3:2000#107",
                "key":"PCR_repetition_error [2.3a]",
                "subkey":"",
                "info":"43 ms"
            },
            {
                "id":1430199987000021,
                "start":1430200010.3250744000000,
                "changed":1430200010.3260746000000,
                "duration":0,
                "status":0,
                "wid":"{1fdbf90a-09d9-44e4-87e2-b815bd1d1f0f}",
                "url":"igmp://239.1.1.3:2000#107",
                "key":"PCR_repetition_error [2.3a]",
                "subkey":"",
                "info":"41 ms"
            },
            {
                "id":1430199987000019,
                "start":1430200009.0880036000000,
                "changed":1430200010.3260746000000,
                "duration":0,
                "status":1,
                "wid":"{3240845e-8fda-410d-bef0-fab8512f3791}",
                "url":"igmp://239.1.1.3:2000#108",
                "key":"PCR_repetition_error [2.3a]",
                "subkey":"",
                "info":"42 ms"
            },
            {
                "id":1430199987000022,
                "start":1430200010.3250744000000,
                "changed":1430200011.5941472000000,
                "duration":0,
                "status":1,
                "wid":"{3240845e-8fda-410d-bef0-fab8512f3791}",
                "url":"igmp://239.1.1.3:2000#108",
                "key":"PCR_repetition_error [2.3a]",
                "subkey":"",
                "info":"42 ms"
            },
            {
                "id":1430199987000024,
                "start":1430200012.2311835000000,
                "changed":1430200012.2311835000000,
                "duration":0,
                "status":0,
                "wid":"{3240845e-8fda-410d-bef0-fab8512f3791}",
                "url":"igmp://239.1.1.3:2000#108",
                "key":"PCR_repetition_error [2.3a]",
                "subkey":"",
                "info":"43 ms"
            },
            {
                "id":1430199987000023,
                "start":1430200012.2311835000000,
                "changed":1430200013.4682543000000,
                "duration":0,
                "status":1,
                "wid":"{f9666505-5d8a-4cc7-bc21-510096d279b4}",
                "url":"igmp://239.1.1.3:2000#105",
                "key":"PCR_repetition_error [2.3a]",
                "subkey":"",
                "info":"41 ms"
            },
            {
                "id":1430199987000025,
                "start":1430200012.2311835000000,
                "changed":1430200013.4682543000000,
                "duration":0,
                "status":1,
                "wid":"{1fdbf90a-09d9-44e4-87e2-b815bd1d1f0f}",
                "url":"igmp://239.1.1.3:2000#107",
                "key":"PCR_repetition_error [2.3a]",
                "subkey":"",
                "info":"41 ms"
            },
            {
                "id":1430199987000027,
                "start":1430200014.0842896000000,
                "changed":1430200015.3213603000000,
                "duration":0,
                "status":1,
                "wid":"{1fdbf90a-09d9-44e4-87e2-b815bd1d1f0f}",
                "url":"igmp://239.1.1.3:2000#107",
                "key":"PCR_repetition_error [2.3a]",
                "subkey":"",
                "info":"41 ms"
            },
            {
                "id":1430199987000026,
                "start":1430200014.0842896000000,
                "changed":1430200015.3213603000000,
                "duration":0,
                "status":1,
                "wid":"{f9666505-5d8a-4cc7-bc21-510096d279b4}",
                "url":"igmp://239.1.1.3:2000#105",
                "key":"PCR_repetition_error [2.3a]",
                "subkey":"",
                "info":"41 ms"
            },
            {
                "id":1430199987000029,
                "start":1430200014.0842896000000,
                "changed":1430200015.3223603000000,
                "duration":0,
                "status":1,
                "wid":"{3240845e-8fda-410d-bef0-fab8512f3791}",
                "url":"igmp://239.1.1.3:2000#108",
                "key":"PCR_repetition_error [2.3a]",
                "subkey":"",
                "info":"41 ms"
            },
            {
                "id":1430199987000028,
                "start":1430200015.3213603000000,
                "changed":1430200016.5584311000000,
                "duration":0,
                "status":1,
                "wid":"{1fdbf90a-09d9-44e4-87e2-b815bd1d1f0f}",
                "url":"igmp://239.1.1.3:2000#107",
                "key":"PCR_repetition_error [2.3a]",
                "subkey":"",
                "info":"41 ms"
            },
            {
                "id":1430199987000030,
                "start":1430200016.2434130000000,
                "changed":1430200017.4624827000000,
                "duration":0,
                "status":1,
                "wid":"{f9666505-5d8a-4cc7-bc21-510096d279b4}",
                "url":"igmp://239.1.1.3:2000#105",
                "key":"PCR_repetition_error [2.3a]",
                "subkey":"",
                "info":"41 ms"
            },
            {
                "id":1430199987000031,
                "start":1430200016.2434130000000,
                "changed":1430200017.4624827000000,
                "duration":0,
                "status":1,
                "wid":"{3240845e-8fda-410d-bef0-fab8512f3791}",
                "url":"igmp://239.1.1.3:2000#108",
                "key":"PCR_repetition_error [2.3a]",
                "subkey":"",
                "info":"41 ms"
            },
            {
                "id":1430199987000032,
                "start":1430200017.1604655000000,
                "changed":1430200018.3815353000000,
                "duration":0,
                "status":1,
                "wid":"{1fdbf90a-09d9-44e4-87e2-b815bd1d1f0f}",
                "url":"igmp://239.1.1.3:2000#107",
                "key":"PCR_repetition_error [2.3a]",
                "subkey":"",
                "info":"42 ms"
            },
            {
                "id":1430199987000033,
                "start":1430200018.0805182000000,
                "changed":1430200019.2995877000000,
                "duration":0,
                "status":1,
                "wid":"{f9666505-5d8a-4cc7-bc21-510096d279b4}",
                "url":"igmp://239.1.1.3:2000#105",
                "key":"PCR_repetition_error [2.3a]",
                "subkey":"",
                "info":"41 ms"
            },
            {
                "id":1430199987000034,
                "start":1430200020.2186403000000,
                "changed":1430200020.2196405000000,
                "duration":0,
                "status":0,
                "wid":"{1fdbf90a-09d9-44e4-87e2-b815bd1d1f0f}",
                "url":"igmp://239.1.1.3:2000#107",
                "key":"PCR_repetition_error [2.3a]",
                "subkey":"",
                "info":"41 ms"
            },
            {
                "id":1430199987000036,
                "start":1430200021.1396930000000,
                "changed":1430200022.3417618000000,
                "duration":0,
                "status":1,
                "wid":"{3240845e-8fda-410d-bef0-fab8512f3791}",
                "url":"igmp://239.1.1.3:2000#108",
                "key":"PCR_repetition_error [2.3a]",
                "subkey":"",
                "info":"42 ms"
            },
            {
                "id":1430199987000035,
                "start":1430200021.1396930000000,
                "changed":1430200022.3417618000000,
                "duration":0,
                "status":1,
                "wid":"{f9666505-5d8a-4cc7-bc21-510096d279b4}",
                "url":"igmp://239.1.1.3:2000#105",
                "key":"PCR_repetition_error [2.3a]",
                "subkey":"",
                "info":"41 ms"
            },
            {
                "id":1430199987000038,
                "start":1430200021.1396930000000,
                "changed":1430200022.3417618000000,
                "duration":0,
                "status":1,
                "wid":"{1fdbf90a-09d9-44e4-87e2-b815bd1d1f0f}",
                "url":"igmp://239.1.1.3:2000#107",
                "key":"PCR_repetition_error [2.3a]",
                "subkey":"",
                "info":"43 ms"
            },
            {
                "id":1430199987000040,
                "start":1430200022.3417618000000,
                "changed":1430200023.5648317000000,
                "duration":0,
                "status":1,
                "wid":"{3240845e-8fda-410d-bef0-fab8512f3791}",
                "url":"igmp://239.1.1.3:2000#108",
                "key":"PCR_repetition_error [2.3a]",
                "subkey":"",
                "info":"41 ms"
            },
            {
                "id":1430199987000037,
                "start":1430200022.3417618000000,
                "changed":1430200023.5648317000000,
                "duration":0,
                "status":1,
                "wid":"{f9666505-5d8a-4cc7-bc21-510096d279b4}",
                "url":"igmp://239.1.1.3:2000#105",
                "key":"PCR_repetition_error [2.3a]",
                "subkey":"",
                "info":"41 ms"
            },
            {
                "id":1430199987000039,
                "start":1430200022.3417618000000,
                "changed":1430200023.5648317000000,
                "duration":0,
                "status":1,
                "wid":"{1fdbf90a-09d9-44e4-87e2-b815bd1d1f0f}",
                "url":"igmp://239.1.1.3:2000#107",
                "key":"PCR_repetition_error [2.3a]",
                "subkey":"",
                "info":"42 ms"
            },
            {
                "id":1430199987000041,
                "start":1430200024.1658661000000,
                "changed":1430200024.1658661000000,
                "duration":0,
                "status":0,
                "wid":"{1fdbf90a-09d9-44e4-87e2-b815bd1d1f0f}",
                "url":"igmp://239.1.1.3:2000#107",
                "key":"PCR_repetition_error [2.3a]",
                "subkey":"",
                "info":"41 ms"
            },
            {
                "id":1430199987000042,
                "start":1430200024.1658661000000,
                "changed":1430200024.1658661000000,
                "duration":0,
                "status":0,
                "wid":"{3240845e-8fda-410d-bef0-fab8512f3791}",
                "url":"igmp://239.1.1.3:2000#108",
                "key":"PCR_repetition_error [2.3a]",
                "subkey":"",
                "info":"42 ms"
            },
            {
                "id":1430199987000043,
                "start":1430200025.1039197000000,
                "changed":1430200026.3379905000000,
                "duration":0,
                "status":1,
                "wid":"{1fdbf90a-09d9-44e4-87e2-b815bd1d1f0f}",
                "url":"igmp://239.1.1.3:2000#107",
                "key":"PCR_repetition_error [2.3a]",
                "subkey":"",
                "info":"43 ms"
            },
            {
                "id":1430199987000044,
                "start":1430200025.1039197000000,
                "changed":1430200026.3379905000000,
                "duration":0,
                "status":1,
                "wid":"{3240845e-8fda-410d-bef0-fab8512f3791}",
                "url":"igmp://239.1.1.3:2000#108",
                "key":"PCR_repetition_error [2.3a]",
                "subkey":"",
                "info":"43 ms"
            },
            {
                "id":1430199987000045,
                "start":1430200032.2383280000000,
                "changed":1430200033.4633980000000,
                "duration":0,
                "status":1,
                "wid":"{f9666505-5d8a-4cc7-bc21-510096d279b4}",
                "url":"igmp://239.1.1.3:2000#105",
                "key":"PCR_repetition_error [2.3a]",
                "subkey":"",
                "info":"41 ms"
            },
            {
                "id":1430199987000046,
                "start":1430200037.1046062000000,
                "changed":1430200038.3416770000000,
                "duration":0,
                "status":1,
                "wid":"{3240845e-8fda-410d-bef0-fab8512f3791}",
                "url":"igmp://239.1.1.3:2000#108",
                "key":"PCR_repetition_error [2.3a]",
                "subkey":"",
                "info":"41 ms"
            },
            {
                "id":1430199987000047,
                "start":1430200039.2627296000000,
                "changed":1430200040.4797993000000,
                "duration":0,
                "status":1,
                "wid":"{f9666505-5d8a-4cc7-bc21-510096d279b4}",
                "url":"igmp://239.1.1.3:2000#105",
                "key":"PCR_repetition_error [2.3a]",
                "subkey":"",
                "info":"41 ms"
            },
            {
                "id":1430199987000048,
                "start":1430200040.1797822000000,
                "changed":1430200041.3998520000000,
                "duration":0,
                "status":1,
                "wid":"{1fdbf90a-09d9-44e4-87e2-b815bd1d1f0f}",
                "url":"igmp://239.1.1.3:2000#107",
                "key":"PCR_repetition_error [2.3a]",
                "subkey":"",
                "info":"43 ms"
            },
            {
                "id":1430199987000049,
                "start":1430200040.1797822000000,
                "changed":1430200041.3998520000000,
                "duration":0,
                "status":1,
                "wid":"{3240845e-8fda-410d-bef0-fab8512f3791}",
                "url":"igmp://239.1.1.3:2000#108",
                "key":"PCR_repetition_error [2.3a]",
                "subkey":"",
                "info":"41 ms"
            },
            {
                "id":1430199987000050,
                "start":1430200041.1008348000000,
                "changed":1430200042.3379056000000,
                "duration":0,
                "status":1,
                "wid":"{f9666505-5d8a-4cc7-bc21-510096d279b4}",
                "url":"igmp://239.1.1.3:2000#105",
                "key":"PCR_repetition_error [2.3a]",
                "subkey":"",
                "info":"42 ms"
            },
            {
                "id":1430199987000051,
                "start":1430200042.3379056000000,
                "changed":1430200043.5729764000000,
                "duration":0,
                "status":1,
                "wid":"{1fdbf90a-09d9-44e4-87e2-b815bd1d1f0f}",
                "url":"igmp://239.1.1.3:2000#107",
                "key":"PCR_repetition_error [2.3a]",
                "subkey":"",
                "info":"42 ms"
            },
            {
                "id":1430199987000052,
                "start":1430200043.2739592000000,
                "changed":1430200044.5100298000000,
                "duration":0,
                "status":1,
                "wid":"{f9666505-5d8a-4cc7-bc21-510096d279b4}",
                "url":"igmp://239.1.1.3:2000#105",
                "key":"PCR_repetition_error [2.3a]",
                "subkey":"",
                "info":"41 ms"
            },
            {
                "id":1430199987000053,
                "start":1430200048.1692390000000,
                "changed":1430200049.3893089000000,
                "duration":0,
                "status":1,
                "wid":"{3240845e-8fda-410d-bef0-fab8512f3791}",
                "url":"igmp://239.1.1.3:2000#108",
                "key":"PCR_repetition_error [2.3a]",
                "subkey":"",
                "info":"41 ms"
            },
            {
                "id":1430199987000054,
                "start":1430200050.2983608000000,
                "changed":1430200051.5134304000000,
                "duration":0,
                "status":1,
                "wid":"{1fdbf90a-09d9-44e4-87e2-b815bd1d1f0f}",
                "url":"igmp://239.1.1.3:2000#107",
                "key":"PCR_repetition_error [2.3a]",
                "subkey":"",
                "info":"41 ms"
            },
            {
                "id":1430199987000056,
                "start":1430200052.1194651000000,
                "changed":1430200053.3525355000000,
                "duration":0,
                "status":1,
                "wid":"{3240845e-8fda-410d-bef0-fab8512f3791}",
                "url":"igmp://239.1.1.3:2000#108",
                "key":"PCR_repetition_error [2.3a]",
                "subkey":"",
                "info":"42 ms"
            },
            {
                "id":1430199987000055,
                "start":1430200052.1194651000000,
                "changed":1430200053.3525355000000,
                "duration":0,
                "status":1,
                "wid":"{f9666505-5d8a-4cc7-bc21-510096d279b4}",
                "url":"igmp://239.1.1.3:2000#105",
                "key":"PCR_repetition_error [2.3a]",
                "subkey":"",
                "info":"42 ms"
            },
            {
                "id":1430199987000057,
                "start":1430200054.2865889000000,
                "changed":1430200055.5106590000000,
                "duration":0,
                "status":1,
                "wid":"{3240845e-8fda-410d-bef0-fab8512f3791}",
                "url":"igmp://239.1.1.3:2000#108",
                "key":"PCR_repetition_error [2.3a]",
                "subkey":"",
                "info":"42 ms"
            },
            {
                "id":1430199987000058,
                "start":1430200055.1916409000000,
                "changed":1430200056.4117105000000,
                "duration":0,
                "status":1,
                "wid":"{1fdbf90a-09d9-44e4-87e2-b815bd1d1f0f}",
                "url":"igmp://239.1.1.3:2000#107",
                "key":"PCR_repetition_error [2.3a]",
                "subkey":"",
                "info":"41 ms"
            },
            {
                "id":1430199987000060,
                "start":1430200057.3137622000000,
                "changed":1430200057.3147624000000,
                "duration":0,
                "status":0,
                "wid":"{1fdbf90a-09d9-44e4-87e2-b815bd1d1f0f}",
                "url":"igmp://239.1.1.3:2000#107",
                "key":"PCR_repetition_error [2.3a]",
                "subkey":"",
                "info":"42 ms"
            },
            {
                "id":1430199987000061,
                "start":1430200057.3137622000000,
                "changed":1430200058.5548332000000,
                "duration":0,
                "status":1,
                "wid":"{3240845e-8fda-410d-bef0-fab8512f3791}",
                "url":"igmp://239.1.1.3:2000#108",
                "key":"PCR_repetition_error [2.3a]",
                "subkey":"",
                "info":"41 ms"
            },
            {
                "id":1430199987000059,
                "start":1430200057.3137622000000,
                "changed":1430200058.5548332000000,
                "duration":0,
                "status":1,
                "wid":"{f9666505-5d8a-4cc7-bc21-510096d279b4}",
                "url":"igmp://239.1.1.3:2000#105",
                "key":"PCR_repetition_error [2.3a]",
                "subkey":"",
                "info":"41 ms"
            },
            {
                "id":1430199987000062,
                "start":1430200059.1718683000000,
                "changed":1430200059.1718683000000,
                "duration":0,
                "status":0,
                "wid":"{f9666505-5d8a-4cc7-bc21-510096d279b4}",
                "url":"igmp://239.1.1.3:2000#105",
                "key":"PCR_repetition_error [2.3a]",
                "subkey":"",
                "info":"43 ms"
            },
            {
                "id":1430199987000063,
                "start":1430200058.2348149000000,
                "changed":1430200059.4878864000000,
                "duration":0,
                "status":1,
                "wid":"{1fdbf90a-09d9-44e4-87e2-b815bd1d1f0f}",
                "url":"igmp://239.1.1.3:2000#107",
                "key":"PCR_repetition_error [2.3a]",
                "subkey":"",
                "info":"41 ms"
            },
            {
                "id":1430199987000064,
                "start":1430200060.1059217000000,
                "changed":1430200061.3279917000000,
                "duration":0,
                "status":1,
                "wid":"{f9666505-5d8a-4cc7-bc21-510096d279b4}",
                "url":"igmp://239.1.1.3:2000#105",
                "key":"PCR_repetition_error [2.3a]",
                "subkey":"",
                "info":"41 ms"
            },
            {
                "id":1430199987000066,
                "start":1430200061.3279917000000,
                "changed":1430200062.5650625000000,
                "duration":0,
                "status":1,
                "wid":"{3240845e-8fda-410d-bef0-fab8512f3791}",
                "url":"igmp://239.1.1.3:2000#108",
                "key":"PCR_repetition_error [2.3a]",
                "subkey":"",
                "info":"42 ms"
            },
            {
                "id":1430199987000065,
                "start":1430200061.3279917000000,
                "changed":1430200062.5650625000000,
                "duration":0,
                "status":1,
                "wid":"{f9666505-5d8a-4cc7-bc21-510096d279b4}",
                "url":"igmp://239.1.1.3:2000#105",
                "key":"PCR_repetition_error [2.3a]",
                "subkey":"",
                "info":"43 ms"
            },
            {
                "id":1430199987000067,
                "start":1430200065.3392212000000,
                "changed":1430200065.3392212000000,
                "duration":0,
                "status":0,
                "wid":"{1fdbf90a-09d9-44e4-87e2-b815bd1d1f0f}",
                "url":"igmp://239.1.1.3:2000#107",
                "key":"PCR_repetition_error [2.3a]",
                "subkey":"",
                "info":"42 ms"
            },
            {
                "id":1430199987000068,
                "start":1430200065.3392212000000,
                "changed":1430200065.3392212000000,
                "duration":0,
                "status":0,
                "wid":"{3240845e-8fda-410d-bef0-fab8512f3791}",
                "url":"igmp://239.1.1.3:2000#108",
                "key":"PCR_repetition_error [2.3a]",
                "subkey":"",
                "info":"42 ms"
            },
            {
                "id":1430199987000070,
                "start":1430200066.2592738000000,
                "changed":1430200067.4643428000000,
                "duration":0,
                "status":1,
                "wid":"{1fdbf90a-09d9-44e4-87e2-b815bd1d1f0f}",
                "url":"igmp://239.1.1.3:2000#107",
                "key":"PCR_repetition_error [2.3a]",
                "subkey":"",
                "info":"43 ms"
            },
            {
                "id":1430199987000071,
                "start":1430200066.2592738000000,
                "changed":1430200067.4643428000000,
                "duration":0,
                "status":1,
                "wid":"{3240845e-8fda-410d-bef0-fab8512f3791}",
                "url":"igmp://239.1.1.3:2000#108",
                "key":"PCR_repetition_error [2.3a]",
                "subkey":"",
                "info":"41 ms"
            },
            {
                "id":1430199987000069,
                "start":1430200067.1633255000000,
                "changed":1430200068.3983963000000,
                "duration":0,
                "status":1,
                "wid":"{f9666505-5d8a-4cc7-bc21-510096d279b4}",
                "url":"igmp://239.1.1.3:2000#105",
                "key":"PCR_repetition_error [2.3a]",
                "subkey":"",
                "info":"41 ms"
            },
            {
                "id":1430199987000072,
                "start":1430200070.2695031000000,
                "changed":1430200071.4935732000000,
                "duration":0,
                "status":1,
                "wid":"{f9666505-5d8a-4cc7-bc21-510096d279b4}",
                "url":"igmp://239.1.1.3:2000#105",
                "key":"PCR_repetition_error [2.3a]",
                "subkey":"",
                "info":"42 ms"
            },
            {
                "id":1430199987000073,
                "start":1430200071.1735549000000,
                "changed":1430200072.4106257000000,
                "duration":0,
                "status":1,
                "wid":"{3240845e-8fda-410d-bef0-fab8512f3791}",
                "url":"igmp://239.1.1.3:2000#108",
                "key":"PCR_repetition_error [2.3a]",
                "subkey":"",
                "info":"41 ms"
            },
            {
                "id":1430199987000074,
                "start":1430200072.1106083000000,
                "changed":1430200073.3456790000000,
                "duration":0,
                "status":1,
                "wid":"{f9666505-5d8a-4cc7-bc21-510096d279b4}",
                "url":"igmp://239.1.1.3:2000#105",
                "key":"PCR_repetition_error [2.3a]",
                "subkey":"",
                "info":"42 ms"
            },
            {
                "id":1430199987000075,
                "start":1430200073.3456790000000,
                "changed":1430200074.5657489000000,
                "duration":0,
                "status":1,
                "wid":"{f9666505-5d8a-4cc7-bc21-510096d279b4}",
                "url":"igmp://239.1.1.3:2000#105",
                "key":"PCR_repetition_error [2.3a]",
                "subkey":"",
                "info":"42 ms"
            },
            {
                "id":1430199987000076,
                "start":1430200073.3456790000000,
                "changed":1430200074.5667489000000,
                "duration":0,
                "status":1,
                "wid":"{3240845e-8fda-410d-bef0-fab8512f3791}",
                "url":"igmp://239.1.1.3:2000#108",
                "key":"PCR_repetition_error [2.3a]",
                "subkey":"",
                "info":"41 ms"
            },
            {
                "id":1430199987000077,
                "start":1430200075.1687834000000,
                "changed":1430200076.4088542000000,
                "duration":0,
                "status":1,
                "wid":"{3240845e-8fda-410d-bef0-fab8512f3791}",
                "url":"igmp://239.1.1.3:2000#108",
                "key":"PCR_repetition_error [2.3a]",
                "subkey":"",
                "info":"41 ms"
            },
            {
                "id":1430199987000078,
                "start":1430200076.0868359000000,
                "changed":1430200077.3429077000000,
                "duration":0,
                "status":1,
                "wid":"{f9666505-5d8a-4cc7-bc21-510096d279b4}",
                "url":"igmp://239.1.1.3:2000#105",
                "key":"PCR_repetition_error [2.3a]",
                "subkey":"",
                "info":"43 ms"
            },
            {
                "id":1430199987000079,
                "start":1430200076.0868359000000,
                "changed":1430200077.3429077000000,
                "duration":0,
                "status":1,
                "wid":"{1fdbf90a-09d9-44e4-87e2-b815bd1d1f0f}",
                "url":"igmp://239.1.1.3:2000#107",
                "key":"PCR_repetition_error [2.3a]",
                "subkey":"",
                "info":"43 ms"
            },
            {
                "id":1430199987000080,
                "start":1430200077.3429077000000,
                "changed":1430200078.5609775000000,
                "duration":0,
                "status":1,
                "wid":"{1fdbf90a-09d9-44e4-87e2-b815bd1d1f0f}",
                "url":"igmp://239.1.1.3:2000#107",
                "key":"PCR_repetition_error [2.3a]",
                "subkey":"",
                "info":"41 ms"
            },
            {
                "id":1430199987000081,
                "start":1430200077.3429077000000,
                "changed":1430200078.5619774000000,
                "duration":0,
                "status":1,
                "wid":"{3240845e-8fda-410d-bef0-fab8512f3791}",
                "url":"igmp://239.1.1.3:2000#108",
                "key":"PCR_repetition_error [2.3a]",
                "subkey":"",
                "info":"41 ms"
            },
            {
                "id":1430199987000082,
                "start":1430200078.2609603000000,
                "changed":1430200079.4840302000000,
                "duration":0,
                "status":1,
                "wid":"{f9666505-5d8a-4cc7-bc21-510096d279b4}",
                "url":"igmp://239.1.1.3:2000#105",
                "key":"PCR_repetition_error [2.3a]",
                "subkey":"",
                "info":"43 ms"
            },
            {
                "id":1430199987000083,
                "start":1430200079.1630118000000,
                "changed":1430200080.3840816000000,
                "duration":0,
                "status":1,
                "wid":"{3240845e-8fda-410d-bef0-fab8512f3791}",
                "url":"igmp://239.1.1.3:2000#108",
                "key":"PCR_repetition_error [2.3a]",
                "subkey":"",
                "info":"42 ms"
            },
            {
                "id":1430199987000084,
                "start":1430200080.0870647000000,
                "changed":1430200081.3211353000000,
                "duration":0,
                "status":1,
                "wid":"{f9666505-5d8a-4cc7-bc21-510096d279b4}",
                "url":"igmp://239.1.1.3:2000#105",
                "key":"PCR_repetition_error [2.3a]",
                "subkey":"",
                "info":"41 ms"
            },
            {
                "id":1430199987000087,
                "start":1430200081.3201351000000,
                "changed":1430200081.3211353000000,
                "duration":0,
                "status":0,
                "wid":"{3240845e-8fda-410d-bef0-fab8512f3791}",
                "url":"igmp://239.1.1.3:2000#108",
                "key":"PCR_repetition_error [2.3a]",
                "subkey":"",
                "info":"41 ms"
            },
            {
                "id":1430199987000085,
                "start":1430200081.3201351000000,
                "changed":1430200082.5612063000000,
                "duration":0,
                "status":1,
                "wid":"{f9666505-5d8a-4cc7-bc21-510096d279b4}",
                "url":"igmp://239.1.1.3:2000#105",
                "key":"PCR_repetition_error [2.3a]",
                "subkey":"",
                "info":"42 ms"
            },
            {
                "id":1430199987000086,
                "start":1430200081.3201351000000,
                "changed":1430200082.5612063000000,
                "duration":0,
                "status":1,
                "wid":"{1fdbf90a-09d9-44e4-87e2-b815bd1d1f0f}",
                "url":"igmp://239.1.1.3:2000#107",
                "key":"PCR_repetition_error [2.3a]",
                "subkey":"",
                "info":"43 ms"
            },
            {
                "id":1430199987000089,
                "start":1430200082.2551887000000,
                "changed":1430200083.4792588000000,
                "duration":0,
                "status":1,
                "wid":"{3240845e-8fda-410d-bef0-fab8512f3791}",
                "url":"igmp://239.1.1.3:2000#108",
                "key":"PCR_repetition_error [2.3a]",
                "subkey":"",
                "info":"44 ms"
            },
            {
                "id":1430199987000088,
                "start":1430200083.1762414000000,
                "changed":1430200084.3953111000000,
                "duration":0,
                "status":1,
                "wid":"{f9666505-5d8a-4cc7-bc21-510096d279b4}",
                "url":"igmp://239.1.1.3:2000#105",
                "key":"PCR_repetition_error [2.3a]",
                "subkey":"",
                "info":"41 ms"
            },
            {
                "id":1430199987000090,
                "start":1430200087.1384680000000,
                "changed":1430200088.3425369000000,
                "duration":0,
                "status":1,
                "wid":"{3240845e-8fda-410d-bef0-fab8512f3791}",
                "url":"igmp://239.1.1.3:2000#108",
                "key":"PCR_repetition_error [2.3a]",
                "subkey":"",
                "info":"42 ms"
            },
            {
                "id":1430199987000092,
                "start":1430200090.1486402000000,
                "changed":1430200091.3677099000000,
                "duration":0,
                "status":1,
                "wid":"{3240845e-8fda-410d-bef0-fab8512f3791}",
                "url":"igmp://239.1.1.3:2000#108",
                "key":"PCR_repetition_error [2.3a]",
                "subkey":"",
                "info":"41 ms"
            },
            {
                "id":1430199987000091,
                "start":1430200090.1486402000000,
                "changed":1430200091.3677099000000,
                "duration":0,
                "status":1,
                "wid":"{1fdbf90a-09d9-44e4-87e2-b815bd1d1f0f}",
                "url":"igmp://239.1.1.3:2000#107",
                "key":"PCR_repetition_error [2.3a]",
                "subkey":"",
                "info":"42 ms"
            },
            {
                "id":1430199987000093,
                "start":1430200091.3677099000000,
                "changed":1430200092.5697787000000,
                "duration":0,
                "status":1,
                "wid":"{f9666505-5d8a-4cc7-bc21-510096d279b4}",
                "url":"igmp://239.1.1.3:2000#105",
                "key":"PCR_repetition_error [2.3a]",
                "subkey":"",
                "info":"41 ms"
            },
            {
                "id":1430199987000094,
                "start":1430200092.2687614000000,
                "changed":1430200093.4758303000000,
                "duration":0,
                "status":1,
                "wid":"{1fdbf90a-09d9-44e4-87e2-b815bd1d1f0f}",
                "url":"igmp://239.1.1.3:2000#107",
                "key":"PCR_repetition_error [2.3a]",
                "subkey":"",
                "info":"42 ms"
            },
            {
                "id":1430199987000095,
                "start":1430200092.2687614000000,
                "changed":1430200093.4758303000000,
                "duration":0,
                "status":1,
                "wid":"{3240845e-8fda-410d-bef0-fab8512f3791}",
                "url":"igmp://239.1.1.3:2000#108",
                "key":"PCR_repetition_error [2.3a]",
                "subkey":"",
                "info":"41 ms"
            },
            {
                "id":1430199987000096,
                "start":1430200096.2309880000000,
                "changed":1430200096.2309880000000,
                "duration":0,
                "status":0,
                "wid":"{3240845e-8fda-410d-bef0-fab8512f3791}",
                "url":"igmp://239.1.1.3:2000#108",
                "key":"PCR_repetition_error [2.3a]",
                "subkey":"",
                "info":"41 ms"
            },
            {
                "id":1430199987000097,
                "start":1430200097.1370399000000,
                "changed":1430200097.1380398000000,
                "duration":0,
                "status":0,
                "wid":"{1fdbf90a-09d9-44e4-87e2-b815bd1d1f0f}",
                "url":"igmp://239.1.1.3:2000#107",
                "key":"PCR_repetition_error [2.3a]",
                "subkey":"",
                "info":"42 ms"
            },
            {
                "id":1430199987000098,
                "start":1430200098.0710933000000,
                "changed":1430200099.2731621000000,
                "duration":0,
                "status":1,
                "wid":"{f9666505-5d8a-4cc7-bc21-510096d279b4}",
                "url":"igmp://239.1.1.3:2000#105",
                "key":"PCR_repetition_error [2.3a]",
                "subkey":"",
                "info":"43 ms"
            },
            {
                "id":1430199987000099,
                "start":1430200098.0710933000000,
                "changed":1430200099.2741621000000,
                "duration":0,
                "status":1,
                "wid":"{1fdbf90a-09d9-44e4-87e2-b815bd1d1f0f}",
                "url":"igmp://239.1.1.3:2000#107",
                "key":"PCR_repetition_error [2.3a]",
                "subkey":"",
                "info":"43 ms"
            },
            {
                "id":1430199987000100,
                "start":1430200098.0710933000000,
                "changed":1430200099.2741621000000,
                "duration":0,
                "status":1,
                "wid":"{3240845e-8fda-410d-bef0-fab8512f3791}",
                "url":"igmp://239.1.1.3:2000#108",
                "key":"PCR_repetition_error [2.3a]",
                "subkey":"",
                "info":"41 ms"
            },
            {
                "id":1430199987000101,
                "start":1430200100.2092156000000,
                "changed":1430200100.2102156000000,
                "duration":0,
                "status":0,
                "wid":"{f9666505-5d8a-4cc7-bc21-510096d279b4}",
                "url":"igmp://239.1.1.3:2000#105",
                "key":"PCR_repetition_error [2.3a]",
                "subkey":"",
                "info":"43 ms"
            },
            {
                "id":1430199987000102,
                "start":1430200100.2092156000000,
                "changed":1430200100.2102156000000,
                "duration":0,
                "status":0,
                "wid":"{1fdbf90a-09d9-44e4-87e2-b815bd1d1f0f}",
                "url":"igmp://239.1.1.3:2000#107",
                "key":"PCR_repetition_error [2.3a]",
                "subkey":"",
                "info":"41 ms"
            },
            {
                "id":1430199987000103,
                "start":1430200100.2092156000000,
                "changed":1430200100.2102156000000,
                "duration":0,
                "status":0,
                "wid":"{3240845e-8fda-410d-bef0-fab8512f3791}",
                "url":"igmp://239.1.1.3:2000#108",
                "key":"PCR_repetition_error [2.3a]",
                "subkey":"",
                "info":"42 ms"
            },
            {
                "id":1430199987000104,
                "start":1430200101.1132674000000,
                "changed":1430200102.3343372000000,
                "duration":0,
                "status":1,
                "wid":"{f9666505-5d8a-4cc7-bc21-510096d279b4}",
                "url":"igmp://239.1.1.3:2000#105",
                "key":"PCR_repetition_error [2.3a]",
                "subkey":"",
                "info":"41 ms"
            },
            {
                "id":1430199987000105,
                "start":1430200102.3343372000000,
                "changed":1430200102.3343372000000,
                "duration":0,
                "status":0,
                "wid":"{f9666505-5d8a-4cc7-bc21-510096d279b4}",
                "url":"igmp://239.1.1.3:2000#105",
                "key":"PCR_repetition_error [2.3a]",
                "subkey":"",
                "info":"41 ms"
            },
            {
                "id":1430199987000106,
                "start":1430200101.1132674000000,
                "changed":1430200102.3343372000000,
                "duration":0,
                "status":1,
                "wid":"{1fdbf90a-09d9-44e4-87e2-b815bd1d1f0f}",
                "url":"igmp://239.1.1.3:2000#107",
                "key":"PCR_repetition_error [2.3a]",
                "subkey":"",
                "info":"43 ms"
            },
            {
                "id":1430199987000108,
                "start":1430200101.1132674000000,
                "changed":1430200102.3343372000000,
                "duration":0,
                "status":1,
                "wid":"{3240845e-8fda-410d-bef0-fab8512f3791}",
                "url":"igmp://239.1.1.3:2000#108",
                "key":"PCR_repetition_error [2.3a]",
                "subkey":"",
                "info":"41 ms"
            },
            {
                "id":1430199987000109,
                "start":1430200102.3343372000000,
                "changed":1430200102.3343372000000,
                "duration":0,
                "status":0,
                "wid":"{3240845e-8fda-410d-bef0-fab8512f3791}",
                "url":"igmp://239.1.1.3:2000#108",
                "key":"PCR_repetition_error [2.3a]",
                "subkey":"",
                "info":"42 ms"
            },
            {
                "id":1430199987000107,
                "start":1430200102.3343372000000,
                "changed":1430200103.5694079000000,
                "duration":0,
                "status":1,
                "wid":"{1fdbf90a-09d9-44e4-87e2-b815bd1d1f0f}",
                "url":"igmp://239.1.1.3:2000#107",
                "key":"PCR_repetition_error [2.3a]",
                "subkey":"",
                "info":"41 ms"
            },
            {
                "id":1430199987000110,
                "start":1430200103.2533898000000,
                "changed":1430200104.4914606000000,
                "duration":0,
                "status":1,
                "wid":"{f9666505-5d8a-4cc7-bc21-510096d279b4}",
                "url":"igmp://239.1.1.3:2000#105",
                "key":"PCR_repetition_error [2.3a]",
                "subkey":"",
                "info":"42 ms"
            },
            {
                "id":1430199987000111,
                "start":1430200103.2533898000000,
                "changed":1430200104.4914606000000,
                "duration":0,
                "status":1,
                "wid":"{3240845e-8fda-410d-bef0-fab8512f3791}",
                "url":"igmp://239.1.1.3:2000#108",
                "key":"PCR_repetition_error [2.3a]",
                "subkey":"",
                "info":"41 ms"
            },
            {
                "id":1430199987000113,
                "start":1430200105.0904949000000,
                "changed":1430200106.3105645000000,
                "duration":0,
                "status":1,
                "wid":"{3240845e-8fda-410d-bef0-fab8512f3791}",
                "url":"igmp://239.1.1.3:2000#108",
                "key":"PCR_repetition_error [2.3a]",
                "subkey":"",
                "info":"42 ms"
            },
            {
                "id":1430199987000112,
                "start":1430200105.0904949000000,
                "changed":1430200106.3105645000000,
                "duration":0,
                "status":1,
                "wid":"{1fdbf90a-09d9-44e4-87e2-b815bd1d1f0f}",
                "url":"igmp://239.1.1.3:2000#107",
                "key":"PCR_repetition_error [2.3a]",
                "subkey":"",
                "info":"42 ms"
            },
            {
                "id":1430199987000115,
                "start":1430200106.3105645000000,
                "changed":1430200106.3115647000000,
                "duration":0,
                "status":0,
                "wid":"{3240845e-8fda-410d-bef0-fab8512f3791}",
                "url":"igmp://239.1.1.3:2000#108",
                "key":"PCR_repetition_error [2.3a]",
                "subkey":"",
                "info":"41 ms"
            },
            {
                "id":1430199987000114,
                "start":1430200106.3105645000000,
                "changed":1430200107.5156336000000,
                "duration":0,
                "status":1,
                "wid":"{1fdbf90a-09d9-44e4-87e2-b815bd1d1f0f}",
                "url":"igmp://239.1.1.3:2000#107",
                "key":"PCR_repetition_error [2.3a]",
                "subkey":"",
                "info":"41 ms"
            },
            {
                "id":1430199987000116,
                "start":1430200108.1366689000000,
                "changed":1430200108.1376691000000,
                "duration":0,
                "status":0,
                "wid":"{f9666505-5d8a-4cc7-bc21-510096d279b4}",
                "url":"igmp://239.1.1.3:2000#105",
                "key":"PCR_repetition_error [2.3a]",
                "subkey":"",
                "info":"41 ms"
            },
            {
                "id":1430199987000118,
                "start":1430200109.0687222000000,
                "changed":1430200110.2907922000000,
                "duration":0,
                "status":1,
                "wid":"{f9666505-5d8a-4cc7-bc21-510096d279b4}",
                "url":"igmp://239.1.1.3:2000#105",
                "key":"PCR_repetition_error [2.3a]",
                "subkey":"",
                "info":"42 ms"
            },
            {
                "id":1430199987000117,
                "start":1430200109.0687222000000,
                "changed":1430200110.2917924000000,
                "duration":0,
                "status":1,
                "wid":"{1fdbf90a-09d9-44e4-87e2-b815bd1d1f0f}",
                "url":"igmp://239.1.1.3:2000#107",
                "key":"PCR_repetition_error [2.3a]",
                "subkey":"",
                "info":"41 ms"
            },
            {
                "id":1430199987000120,
                "start":1430200109.0687222000000,
                "changed":1430200110.2917924000000,
                "duration":0,
                "status":1,
                "wid":"{3240845e-8fda-410d-bef0-fab8512f3791}",
                "url":"igmp://239.1.1.3:2000#108",
                "key":"PCR_repetition_error [2.3a]",
                "subkey":"",
                "info":"42 ms"
            },
            {
                "id":1430199987000119,
                "start":1430200110.2907922000000,
                "changed":1430200110.4578018000000,
                "duration":0,
                "status":2,
                "wid":"{1fdbf90a-09d9-44e4-87e2-b815bd1d1f0f}",
                "url":"igmp://239.1.1.3:2000#107",
                "key":"PCR_repetition_error [2.3a]",
                "subkey":"",
                "info":"43 ms"
            },
            {
                "id":1430199987000122,
                "start":1430200111.2458467000000,
                "changed":1430200111.2458467000000,
                "duration":0,
                "status":0,
                "wid":"{f9666505-5d8a-4cc7-bc21-510096d279b4}",
                "url":"igmp://239.1.1.3:2000#105",
                "key":"PCR_repetition_error [2.3a]",
                "subkey":"",
                "info":"41 ms"
            },
            {
                "id":1430199987000121,
                "start":1430200110.2907922000000,
                "changed":1430200111.5468640000000,
                "duration":0,
                "status":3,
                "wid":"{3240845e-8fda-410d-bef0-fab8512f3791}",
                "url":"igmp://239.1.1.3:2000#108",
                "key":"PCR_repetition_error [2.3a]",
                "subkey":"",
                "info":"41 ms"
            },
            {
                "id":1430199987000123,
                "start":1430200112.1458983000000,
                "changed":1430200112.1458983000000,
                "duration":0,
                "status":0,
                "wid":"{3240845e-8fda-410d-bef0-fab8512f3791}",
                "url":"igmp://239.1.1.3:2000#108",
                "key":"PCR_repetition_error [2.3a]",
                "subkey":"",
                "info":"41 ms"
            },
            {
                "id":1430199987000124,
                "start":1430200113.0819519000000,
                "changed":1430200114.3190227000000,
                "duration":0,
                "status":1,
                "wid":"{f9666505-5d8a-4cc7-bc21-510096d279b4}",
                "url":"igmp://239.1.1.3:2000#105",
                "key":"PCR_repetition_error [2.3a]",
                "subkey":"",
                "info":"41 ms"
            },
            {
                "id":1430199987000126,
                "start":1430200113.0819519000000,
                "changed":1430200114.3190227000000,
                "duration":0,
                "status":1,
                "wid":"{1fdbf90a-09d9-44e4-87e2-b815bd1d1f0f}",
                "url":"igmp://239.1.1.3:2000#107",
                "key":"PCR_repetition_error [2.3a]",
                "subkey":"",
                "info":"43 ms"
            },
            {
                "id":1430199987000128,
                "start":1430200113.0819519000000,
                "changed":1430200114.3190227000000,
                "duration":0,
                "status":1,
                "wid":"{3240845e-8fda-410d-bef0-fab8512f3791}",
                "url":"igmp://239.1.1.3:2000#108",
                "key":"PCR_repetition_error [2.3a]",
                "subkey":"",
                "info":"43 ms"
            },
            {
                "id":1430199987000125,
                "start":1430200114.3180227000000,
                "changed":1430200115.5560935000000,
                "duration":0,
                "status":1,
                "wid":"{f9666505-5d8a-4cc7-bc21-510096d279b4}",
                "url":"igmp://239.1.1.3:2000#105",
                "key":"PCR_repetition_error [2.3a]",
                "subkey":"",
                "info":"42 ms"
            },
            {
                "id":1430199987000127,
                "start":1430200114.3180227000000,
                "changed":1430200115.5560935000000,
                "duration":0,
                "status":1,
                "wid":"{1fdbf90a-09d9-44e4-87e2-b815bd1d1f0f}",
                "url":"igmp://239.1.1.3:2000#107",
                "key":"PCR_repetition_error [2.3a]",
                "subkey":"",
                "info":"41 ms"
            },
            {
                "id":1430199987000129,
                "start":1430200115.2560763000000,
                "changed":1430200116.4761460000000,
                "duration":0,
                "status":1,
                "wid":"{3240845e-8fda-410d-bef0-fab8512f3791}",
                "url":"igmp://239.1.1.3:2000#108",
                "key":"PCR_repetition_error [2.3a]",
                "subkey":"",
                "info":"44 ms"
            },
            {
                "id":1430199987000130,
                "start":1430200116.1751289000000,
                "changed":1430200117.4151998000000,
                "duration":0,
                "status":1,
                "wid":"{1fdbf90a-09d9-44e4-87e2-b815bd1d1f0f}",
                "url":"igmp://239.1.1.3:2000#107",
                "key":"PCR_repetition_error [2.3a]",
                "subkey":"",
                "info":"41 ms"
            },
            {
                "id":1430199987000133,
                "start":1430200119.2523048000000,
                "changed":1430200119.2523048000000,
                "duration":0,
                "status":0,
                "wid":"{1fdbf90a-09d9-44e4-87e2-b815bd1d1f0f}",
                "url":"igmp://239.1.1.3:2000#107",
                "key":"PCR_repetition_error [2.3a]",
                "subkey":"",
                "info":"41 ms"
            },
            {
                "id":1430199987000131,
                "start":1430200118.3472531000000,
                "changed":1430200119.5713229000000,
                "duration":0,
                "status":1,
                "wid":"{f9666505-5d8a-4cc7-bc21-510096d279b4}",
                "url":"igmp://239.1.1.3:2000#105",
                "key":"PCR_repetition_error [2.3a]",
                "subkey":"",
                "info":"41 ms"
            },
            {
                "id":1430199987000132,
                "start":1430200118.3472531000000,
                "changed":1430200119.5723231000000,
                "duration":0,
                "status":1,
                "wid":"{3240845e-8fda-410d-bef0-fab8512f3791}",
                "url":"igmp://239.1.1.3:2000#108",
                "key":"PCR_repetition_error [2.3a]",
                "subkey":"",
                "info":"41 ms"
            },
            {
                "id":1430199987000135,
                "start":1430200120.2043593000000,
                "changed":1430200120.2043593000000,
                "duration":0,
                "status":0,
                "wid":"{3240845e-8fda-410d-bef0-fab8512f3791}",
                "url":"igmp://239.1.1.3:2000#108",
                "key":"PCR_repetition_error [2.3a]",
                "subkey":"",
                "info":"41 ms"
            },
            {
                "id":1430199987000134,
                "start":1430200120.2043593000000,
                "changed":1430200121.4424300000000,
                "duration":0,
                "status":1,
                "wid":"{f9666505-5d8a-4cc7-bc21-510096d279b4}",
                "url":"igmp://239.1.1.3:2000#105",
                "key":"PCR_repetition_error [2.3a]",
                "subkey":"",
                "info":"41 ms"
            },
            {
                "id":1430199987000136,
                "start":1430200120.2043593000000,
                "changed":1430200121.4424300000000,
                "duration":0,
                "status":1,
                "wid":"{1fdbf90a-09d9-44e4-87e2-b815bd1d1f0f}",
                "url":"igmp://239.1.1.3:2000#107",
                "key":"PCR_repetition_error [2.3a]",
                "subkey":"",
                "info":"42 ms"
            },
            {
                "id":1430199987000138,
                "start":1430200121.1404128000000,
                "changed":1430200122.3754835000000,
                "duration":0,
                "status":1,
                "wid":"{3240845e-8fda-410d-bef0-fab8512f3791}",
                "url":"igmp://239.1.1.3:2000#108",
                "key":"PCR_repetition_error [2.3a]",
                "subkey":"",
                "info":"42 ms"
            },
            {
                "id":1430199987000137,
                "start":1430200122.0754664000000,
                "changed":1430200123.2975361000000,
                "duration":0,
                "status":1,
                "wid":"{1fdbf90a-09d9-44e4-87e2-b815bd1d1f0f}",
                "url":"igmp://239.1.1.3:2000#107",
                "key":"PCR_repetition_error [2.3a]",
                "subkey":"",
                "info":"42 ms"
            },
            {
                "id":1430199987000139,
                "start":1430200123.2975361000000,
                "changed":1430200124.5166059000000,
                "duration":0,
                "status":1,
                "wid":"{f9666505-5d8a-4cc7-bc21-510096d279b4}",
                "url":"igmp://239.1.1.3:2000#105",
                "key":"PCR_repetition_error [2.3a]",
                "subkey":"",
                "info":"41 ms"
            },
            {
                "id":1430199987000140,
                "start":1430200123.2975361000000,
                "changed":1430200124.5176060000000,
                "duration":0,
                "status":1,
                "wid":"{3240845e-8fda-410d-bef0-fab8512f3791}",
                "url":"igmp://239.1.1.3:2000#108",
                "key":"PCR_repetition_error [2.3a]",
                "subkey":"",
                "info":"41 ms"
            },
            {
                "id":1430199987000141,
                "start":1430200124.2015879000000,
                "changed":1430200125.4376585000000,
                "duration":0,
                "status":1,
                "wid":"{1fdbf90a-09d9-44e4-87e2-b815bd1d1f0f}",
                "url":"igmp://239.1.1.3:2000#107",
                "key":"PCR_repetition_error [2.3a]",
                "subkey":"",
                "info":"43 ms"
            },
            {
                "id":1430199987000142,
                "start":1430200125.1366413000000,
                "changed":1430200126.3407102000000,
                "duration":0,
                "status":1,
                "wid":"{f9666505-5d8a-4cc7-bc21-510096d279b4}",
                "url":"igmp://239.1.1.3:2000#105",
                "key":"PCR_repetition_error [2.3a]",
                "subkey":"",
                "info":"42 ms"
            },
            {
                "id":1430199987000143,
                "start":1430200126.3407102000000,
                "changed":1430200127.5757809000000,
                "duration":0,
                "status":1,
                "wid":"{f9666505-5d8a-4cc7-bc21-510096d279b4}",
                "url":"igmp://239.1.1.3:2000#105",
                "key":"PCR_repetition_error [2.3a]",
                "subkey":"",
                "info":"42 ms"
            },
            {
                "id":1430199987000144,
                "start":1430200126.3407102000000,
                "changed":1430200127.5757809000000,
                "duration":0,
                "status":1,
                "wid":"{3240845e-8fda-410d-bef0-fab8512f3791}",
                "url":"igmp://239.1.1.3:2000#108",
                "key":"PCR_repetition_error [2.3a]",
                "subkey":"",
                "info":"41 ms"
            },
            {
                "id":1430199987000145,
                "start":1430200127.2587628000000,
                "changed":1430200128.4938335000000,
                "duration":0,
                "status":1,
                "wid":"{1fdbf90a-09d9-44e4-87e2-b815bd1d1f0f}",
                "url":"igmp://239.1.1.3:2000#107",
                "key":"PCR_repetition_error [2.3a]",
                "subkey":"",
                "info":"42 ms"
            },
            {
                "id":1430199987000146,
                "start":1430200129.1148689000000,
                "changed":1430200130.3349388000000,
                "duration":0,
                "status":1,
                "wid":"{3240845e-8fda-410d-bef0-fab8512f3791}",
                "url":"igmp://239.1.1.3:2000#108",
                "key":"PCR_repetition_error [2.3a]",
                "subkey":"",
                "info":"41 ms"
            },
            {
                "id":1430199987000148,
                "start":1430200130.3349388000000,
                "changed":1430200130.3349388000000,
                "duration":0,
                "status":0,
                "wid":"{1fdbf90a-09d9-44e4-87e2-b815bd1d1f0f}",
                "url":"igmp://239.1.1.3:2000#107",
                "key":"PCR_repetition_error [2.3a]",
                "subkey":"",
                "info":"42 ms"
            },
            {
                "id":1430199987000149,
                "start":1430200130.3349388000000,
                "changed":1430200131.5730095000000,
                "duration":0,
                "status":1,
                "wid":"{3240845e-8fda-410d-bef0-fab8512f3791}",
                "url":"igmp://239.1.1.3:2000#108",
                "key":"PCR_repetition_error [2.3a]",
                "subkey":"",
                "info":"41 ms"
            },
            {
                "id":1430199987000147,
                "start":1430200130.3349388000000,
                "changed":1430200131.5730095000000,
                "duration":0,
                "status":1,
                "wid":"{f9666505-5d8a-4cc7-bc21-510096d279b4}",
                "url":"igmp://239.1.1.3:2000#105",
                "key":"PCR_repetition_error [2.3a]",
                "subkey":"",
                "info":"42 ms"
            },
            {
                "id":1430199987000151,
                "start":1430200132.1890447000000,
                "changed":1430200133.4241154000000,
                "duration":0,
                "status":1,
                "wid":"{1fdbf90a-09d9-44e4-87e2-b815bd1d1f0f}",
                "url":"igmp://239.1.1.3:2000#107",
                "key":"PCR_repetition_error [2.3a]",
                "subkey":"",
                "info":"41 ms"
            },
            {
                "id":1430199987000150,
                "start":1430200132.1890447000000,
                "changed":1430200133.4251153000000,
                "duration":0,
                "status":1,
                "wid":"{3240845e-8fda-410d-bef0-fab8512f3791}",
                "url":"igmp://239.1.1.3:2000#108",
                "key":"PCR_repetition_error [2.3a]",
                "subkey":"",
                "info":"42 ms"
            },
            {
                "id":1430199987000152,
                "start":1430200134.3141663000000,
                "changed":1430200135.5812387000000,
                "duration":0,
                "status":1,
                "wid":"{f9666505-5d8a-4cc7-bc21-510096d279b4}",
                "url":"igmp://239.1.1.3:2000#105",
                "key":"PCR_repetition_error [2.3a]",
                "subkey":"",
                "info":"42 ms"
            },
            {
                "id":1430199987000153,
                "start":1430200135.2492197000000,
                "changed":1430200136.4862905000000,
                "duration":0,
                "status":1,
                "wid":"{1fdbf90a-09d9-44e4-87e2-b815bd1d1f0f}",
                "url":"igmp://239.1.1.3:2000#107",
                "key":"PCR_repetition_error [2.3a]",
                "subkey":"",
                "info":"41 ms"
            },
            {
                "id":1430199987000154,
                "start":1430200135.2492197000000,
                "changed":1430200136.4862905000000,
                "duration":0,
                "status":1,
                "wid":"{3240845e-8fda-410d-bef0-fab8512f3791}",
                "url":"igmp://239.1.1.3:2000#108",
                "key":"PCR_repetition_error [2.3a]",
                "subkey":"",
                "info":"41 ms"
            },
            {
                "id":1430199987000155,
                "start":1430200136.1682723000000,
                "changed":1430200137.4083433000000,
                "duration":0,
                "status":1,
                "wid":"{f9666505-5d8a-4cc7-bc21-510096d279b4}",
                "url":"igmp://239.1.1.3:2000#105",
                "key":"PCR_repetition_error [2.3a]",
                "subkey":"",
                "info":"41 ms"
            },
            {
                "id":1430199987000156,
                "start":1430200137.1063261000000,
                "changed":1430200138.3583977000000,
                "duration":1.2520716190338,
                "status":1,
                "wid":"{35d8f8e0-d7e6-4708-b8d8-44f3b032dc11}",
                "url":"igmp://239.1.1.3:2000#104",
                "key":"PID scrambled",
                "subkey":"1110",
                "info":"H.264/AVC Video (27)"
            },
            {
                "id":1430199987000158,
                "start":1430200138.3583977000000,
                "changed":1430200138.3583977000000,
                "duration":0,
                "status":0,
                "wid":"{f9666505-5d8a-4cc7-bc21-510096d279b4}",
                "url":"igmp://239.1.1.3:2000#105",
                "key":"PCR_repetition_error [2.3a]",
                "subkey":"",
                "info":"42 ms"
            },
            {
                "id":1430199987000157,
                "start":1430200137.1063261000000,
                "changed":1430200138.3593976000000,
                "duration":0,
                "status":1,
                "wid":"{3240845e-8fda-410d-bef0-fab8512f3791}",
                "url":"igmp://239.1.1.3:2000#108",
                "key":"PCR_repetition_error [2.3a]",
                "subkey":"",
                "info":"42 ms"
            },
            {
                "id":1430199987000159,
                "start":1430200139.2814505000000,
                "changed":1430200139.2814505000000,
                "duration":0,
                "status":0,
                "wid":"{1fdbf90a-09d9-44e4-87e2-b815bd1d1f0f}",
                "url":"igmp://239.1.1.3:2000#107",
                "key":"PCR_repetition_error [2.3a]",
                "subkey":"",
                "info":"41 ms"
            },
            {
                "id":1430199987000160,
                "start":1430200139.2814505000000,
                "changed":1430200140.5005202000000,
                "duration":0,
                "status":1,
                "wid":"{3240845e-8fda-410d-bef0-fab8512f3791}",
                "url":"igmp://239.1.1.3:2000#108",
                "key":"PCR_repetition_error [2.3a]",
                "subkey":"",
                "info":"43 ms"
            },
            {
                "id":1430199987000161,
                "start":1430200140.1985028000000,
                "changed":1430200141.4365737000000,
                "duration":0,
                "status":1,
                "wid":"{f9666505-5d8a-4cc7-bc21-510096d279b4}",
                "url":"igmp://239.1.1.3:2000#105",
                "key":"PCR_repetition_error [2.3a]",
                "subkey":"",
                "info":"42 ms"
            },
            {
                "id":1430199987000162,
                "start":1430200140.1985028000000,
                "changed":1430200141.4365737000000,
                "duration":0,
                "status":1,
                "wid":"{1fdbf90a-09d9-44e4-87e2-b815bd1d1f0f}",
                "url":"igmp://239.1.1.3:2000#107",
                "key":"PCR_repetition_error [2.3a]",
                "subkey":"",
                "info":"43 ms"
            },
            {
                "id":1430199987000163,
                "start":1430200142.3526261000000,
                "changed":1430200143.5896969000000,
                "duration":0,
                "status":1,
                "wid":"{f9666505-5d8a-4cc7-bc21-510096d279b4}",
                "url":"igmp://239.1.1.3:2000#105",
                "key":"PCR_repetition_error [2.3a]",
                "subkey":"",
                "info":"42 ms"
            },
            {
                "id":1430199987000164,
                "start":1430200142.3526261000000,
                "changed":1430200143.5906971000000,
                "duration":0,
                "status":1,
                "wid":"{1fdbf90a-09d9-44e4-87e2-b815bd1d1f0f}",
                "url":"igmp://239.1.1.3:2000#107",
                "key":"PCR_repetition_error [2.3a]",
                "subkey":"",
                "info":"41 ms"
            },
            {
                "id":1430199987000166,
                "start":1430200144.2107322000000,
                "changed":1430200144.2107322000000,
                "duration":0,
                "status":0,
                "wid":"{f9666505-5d8a-4cc7-bc21-510096d279b4}",
                "url":"igmp://239.1.1.3:2000#105",
                "key":"PCR_repetition_error [2.3a]",
                "subkey":"",
                "info":"41 ms"
            },
            {
                "id":1430199987000165,
                "start":1430200143.2886796000000,
                "changed":1430200144.5107496000000,
                "duration":0,
                "status":1,
                "wid":"{3240845e-8fda-410d-bef0-fab8512f3791}",
                "url":"igmp://239.1.1.3:2000#108",
                "key":"PCR_repetition_error [2.3a]",
                "subkey":"",
                "info":"41 ms"
            },
            {
                "id":1430199987000167,
                "start":1430200145.1277847000000,
                "changed":1430200146.3658557000000,
                "duration":0,
                "status":1,
                "wid":"{1fdbf90a-09d9-44e4-87e2-b815bd1d1f0f}",
                "url":"igmp://239.1.1.3:2000#107",
                "key":"PCR_repetition_error [2.3a]",
                "subkey":"",
                "info":"41 ms"
            },
            {
                "id":1430199987000168,
                "start":1430200145.1277847000000,
                "changed":1430200146.3658557000000,
                "duration":0,
                "status":1,
                "wid":"{f9666505-5d8a-4cc7-bc21-510096d279b4}",
                "url":"igmp://239.1.1.3:2000#105",
                "key":"PCR_repetition_error [2.3a]",
                "subkey":"",
                "info":"42 ms"
            },
            {
                "id":1430199987000169,
                "start":1430200146.3658557000000,
                "changed":1430200147.5869255000000,
                "duration":0,
                "status":1,
                "wid":"{f9666505-5d8a-4cc7-bc21-510096d279b4}",
                "url":"igmp://239.1.1.3:2000#105",
                "key":"PCR_repetition_error [2.3a]",
                "subkey":"",
                "info":"41 ms"
            },
            {
                "id":1430199987000170,
                "start":1430200146.3658557000000,
                "changed":1430200147.5879254000000,
                "duration":0,
                "status":1,
                "wid":"{3240845e-8fda-410d-bef0-fab8512f3791}",
                "url":"igmp://239.1.1.3:2000#108",
                "key":"PCR_repetition_error [2.3a]",
                "subkey":"",
                "info":"43 ms"
            },
            {
                "id":1430199987000173,
                "start":1430200149.1230133000000,
                "changed":1430200150.3480835000000,
                "duration":0,
                "status":1,
                "wid":"{3240845e-8fda-410d-bef0-fab8512f3791}",
                "url":"igmp://239.1.1.3:2000#108",
                "key":"PCR_repetition_error [2.3a]",
                "subkey":"",
                "info":"43 ms"
            },
            {
                "id":1430199987000171,
                "start":1430200149.1230133000000,
                "changed":1430200150.3480835000000,
                "duration":0,
                "status":1,
                "wid":"{f9666505-5d8a-4cc7-bc21-510096d279b4}",
                "url":"igmp://239.1.1.3:2000#105",
                "key":"PCR_repetition_error [2.3a]",
                "subkey":"",
                "info":"41 ms"
            },
            {
                "id":1430199987000174,
                "start":1430200150.3470833000000,
                "changed":1430200150.3480835000000,
                "duration":0,
                "status":0,
                "wid":"{f9666505-5d8a-4cc7-bc21-510096d279b4}",
                "url":"igmp://239.1.1.3:2000#105",
                "key":"PCR_repetition_error [2.3a]",
                "subkey":"",
                "info":"42 ms"
            },
            {
                "id":1430199987000172,
                "start":1430200149.1230133000000,
                "changed":1430200150.3480835000000,
                "duration":0,
                "status":1,
                "wid":"{1fdbf90a-09d9-44e4-87e2-b815bd1d1f0f}",
                "url":"igmp://239.1.1.3:2000#107",
                "key":"PCR_repetition_error [2.3a]",
                "subkey":"",
                "info":"41 ms"
            },
            {
                "id":1430199987000175,
                "start":1430200150.3470833000000,
                "changed":1430200151.5661530000000,
                "duration":0,
                "status":1,
                "wid":"{1fdbf90a-09d9-44e4-87e2-b815bd1d1f0f}",
                "url":"igmp://239.1.1.3:2000#107",
                "key":"PCR_repetition_error [2.3a]",
                "subkey":"",
                "info":"42 ms"
            },
            {
                "id":1430199987000176,
                "start":1430200151.2641358000000,
                "changed":1430200152.5022066000000,
                "duration":0,
                "status":1,
                "wid":"{3240845e-8fda-410d-bef0-fab8512f3791}",
                "url":"igmp://239.1.1.3:2000#108",
                "key":"PCR_repetition_error [2.3a]",
                "subkey":"",
                "info":"41 ms"
            },
            {
                "id":1430199987000179,
                "start":1430200152.1871886000000,
                "changed":1430200153.4192591000000,
                "duration":0,
                "status":1,
                "wid":"{f9666505-5d8a-4cc7-bc21-510096d279b4}",
                "url":"igmp://239.1.1.3:2000#105",
                "key":"PCR_repetition_error [2.3a]",
                "subkey":"",
                "info":"42 ms"
            },
            {
                "id":1430199987000177,
                "start":1430200152.1871886000000,
                "changed":1430200153.4192591000000,
                "duration":0,
                "status":1,
                "wid":"{1fdbf90a-09d9-44e4-87e2-b815bd1d1f0f}",
                "url":"igmp://239.1.1.3:2000#107",
                "key":"PCR_repetition_error [2.3a]",
                "subkey":"",
                "info":"41 ms"
            },
            {
                "id":1430199987000178,
                "start":1430200153.1182418000000,
                "changed":1430200154.3393116000000,
                "duration":0,
                "status":1,
                "wid":"{3240845e-8fda-410d-bef0-fab8512f3791}",
                "url":"igmp://239.1.1.3:2000#108",
                "key":"PCR_repetition_error [2.3a]",
                "subkey":"",
                "info":"41 ms"
            },
            {
                "id":1430199987000180,
                "start":1430200154.3383117000000,
                "changed":1430200155.5593815000000,
                "duration":0,
                "status":1,
                "wid":"{3240845e-8fda-410d-bef0-fab8512f3791}",
                "url":"igmp://239.1.1.3:2000#108",
                "key":"PCR_repetition_error [2.3a]",
                "subkey":"",
                "info":"41 ms"
            },
            {
                "id":1430199987000181,
                "start":1430200155.2453635000000,
                "changed":1430200156.4624331000000,
                "duration":0,
                "status":1,
                "wid":"{f9666505-5d8a-4cc7-bc21-510096d279b4}",
                "url":"igmp://239.1.1.3:2000#105",
                "key":"PCR_repetition_error [2.3a]",
                "subkey":"",
                "info":"43 ms"
            },
            {
                "id":1430199987000182,
                "start":1430200155.2453635000000,
                "changed":1430200156.4624331000000,
                "duration":0,
                "status":1,
                "wid":"{1fdbf90a-09d9-44e4-87e2-b815bd1d1f0f}",
                "url":"igmp://239.1.1.3:2000#107",
                "key":"PCR_repetition_error [2.3a]",
                "subkey":"",
                "info":"41 ms"
            },
            {
                "id":1430199987000184,
                "start":1430200157.0844688000000,
                "changed":1430200158.3185391000000,
                "duration":0,
                "status":1,
                "wid":"{1fdbf90a-09d9-44e4-87e2-b815bd1d1f0f}",
                "url":"igmp://239.1.1.3:2000#107",
                "key":"PCR_repetition_error [2.3a]",
                "subkey":"",
                "info":"41 ms"
            },
            {
                "id":1430199987000183,
                "start":1430200157.0844688000000,
                "changed":1430200158.3185391000000,
                "duration":0,
                "status":1,
                "wid":"{f9666505-5d8a-4cc7-bc21-510096d279b4}",
                "url":"igmp://239.1.1.3:2000#105",
                "key":"PCR_repetition_error [2.3a]",
                "subkey":"",
                "info":"42 ms"
            },
            {
                "id":1430199987000186,
                "start":1430200159.2375917000000,
                "changed":1430200159.2375917000000,
                "duration":0,
                "status":0,
                "wid":"{1fdbf90a-09d9-44e4-87e2-b815bd1d1f0f}",
                "url":"igmp://239.1.1.3:2000#107",
                "key":"PCR_repetition_error [2.3a]",
                "subkey":"",
                "info":"41 ms"
            },
            {
                "id":1430199987000185,
                "start":1430200158.3175392000000,
                "changed":1430200159.5396092000000,
                "duration":0,
                "status":1,
                "wid":"{f9666505-5d8a-4cc7-bc21-510096d279b4}",
                "url":"igmp://239.1.1.3:2000#105",
                "key":"PCR_repetition_error [2.3a]",
                "subkey":"",
                "info":"41 ms"
            },
            {
                "id":1430199987000188,
                "start":1430200160.1586444000000,
                "changed":1430200161.4107161000000,
                "duration":0,
                "status":1,
                "wid":"{3240845e-8fda-410d-bef0-fab8512f3791}",
                "url":"igmp://239.1.1.3:2000#108",
                "key":"PCR_repetition_error [2.3a]",
                "subkey":"",
                "info":"41 ms"
            },
            {
                "id":1430199987000187,
                "start":1430200160.1586444000000,
                "changed":1430200161.4107161000000,
                "duration":0,
                "status":1,
                "wid":"{f9666505-5d8a-4cc7-bc21-510096d279b4}",
                "url":"igmp://239.1.1.3:2000#105",
                "key":"PCR_repetition_error [2.3a]",
                "subkey":"",
                "info":"41 ms"
            },
            {
                "id":1430199987000189,
                "start":1430200160.1586444000000,
                "changed":1430200161.4107161000000,
                "duration":0,
                "status":1,
                "wid":"{1fdbf90a-09d9-44e4-87e2-b815bd1d1f0f}",
                "url":"igmp://239.1.1.3:2000#107",
                "key":"PCR_repetition_error [2.3a]",
                "subkey":"",
                "info":"43 ms"
            },
            {
                "id":1430199987000190,
                "start":1430200162.3297687000000,
                "changed":1430200162.3297687000000,
                "duration":0,
                "status":0,
                "wid":"{f9666505-5d8a-4cc7-bc21-510096d279b4}",
                "url":"igmp://239.1.1.3:2000#105",
                "key":"PCR_repetition_error [2.3a]",
                "subkey":"",
                "info":"41 ms"
            },
            {
                "id":1430199987000193,
                "start":1430200163.2488213000000,
                "changed":1430200164.4558904000000,
                "duration":0,
                "status":1,
                "wid":"{f9666505-5d8a-4cc7-bc21-510096d279b4}",
                "url":"igmp://239.1.1.3:2000#105",
                "key":"PCR_repetition_error [2.3a]",
                "subkey":"",
                "info":"43 ms"
            },
            {
                "id":1430199987000191,
                "start":1430200163.2488213000000,
                "changed":1430200164.4568903000000,
                "duration":0,
                "status":1,
                "wid":"{1fdbf90a-09d9-44e4-87e2-b815bd1d1f0f}",
                "url":"igmp://239.1.1.3:2000#107",
                "key":"PCR_repetition_error [2.3a]",
                "subkey":"",
                "info":"42 ms"
            },
            {
                "id":1430199987000192,
                "start":1430200163.2488213000000,
                "changed":1430200164.4568903000000,
                "duration":0,
                "status":1,
                "wid":"{3240845e-8fda-410d-bef0-fab8512f3791}",
                "url":"igmp://239.1.1.3:2000#108",
                "key":"PCR_repetition_error [2.3a]",
                "subkey":"",
                "info":"41 ms"
            },
            {
                "id":1430199987000195,
                "start":1430200166.2919953000000,
                "changed":1430200166.2929955000000,
                "duration":0,
                "status":0,
                "wid":"{1fdbf90a-09d9-44e4-87e2-b815bd1d1f0f}",
                "url":"igmp://239.1.1.3:2000#107",
                "key":"PCR_repetition_error [2.3a]",
                "subkey":"",
                "info":"43 ms"
            },
            {
                "id":1430199987000196,
                "start":1430200166.2919953000000,
                "changed":1430200167.5130651000000,
                "duration":0,
                "status":1,
                "wid":"{3240845e-8fda-410d-bef0-fab8512f3791}",
                "url":"igmp://239.1.1.3:2000#108",
                "key":"PCR_repetition_error [2.3a]",
                "subkey":"",
                "info":"41 ms"
            },
            {
                "id":1430199987000194,
                "start":1430200166.2919953000000,
                "changed":1430200167.5130651000000,
                "duration":0,
                "status":1,
                "wid":"{f9666505-5d8a-4cc7-bc21-510096d279b4}",
                "url":"igmp://239.1.1.3:2000#105",
                "key":"PCR_repetition_error [2.3a]",
                "subkey":"",
                "info":"42 ms"
            },
            {
                "id":1430199987000198,
                "start":1430200167.2260487000000,
                "changed":1430200168.4331179000000,
                "duration":0,
                "status":1,
                "wid":"{1fdbf90a-09d9-44e4-87e2-b815bd1d1f0f}",
                "url":"igmp://239.1.1.3:2000#107",
                "key":"PCR_repetition_error [2.3a]",
                "subkey":"",
                "info":"41 ms"
            },
            {
                "id":1430199987000197,
                "start":1430200168.1331007000000,
                "changed":1430200169.3691714000000,
                "duration":0,
                "status":1,
                "wid":"{3240845e-8fda-410d-bef0-fab8512f3791}",
                "url":"igmp://239.1.1.3:2000#108",
                "key":"PCR_repetition_error [2.3a]",
                "subkey":"",
                "info":"41 ms"
            },
            {
                "id":1430199987000199,
                "start":1430200170.2722230000000,
                "changed":1430200170.2722230000000,
                "duration":0,
                "status":0,
                "wid":"{f9666505-5d8a-4cc7-bc21-510096d279b4}",
                "url":"igmp://239.1.1.3:2000#105",
                "key":"PCR_repetition_error [2.3a]",
                "subkey":"",
                "info":"41 ms"
            }
        ]
    }

]
